Estimating feeding kernel parameters • mizer
…
    filter(Predator %in% select) %>% 
    # you could alternatively select by common name
    # filter(`Predator common name` %in% selected) %>% 
    transmute(Species = Predator,
              Nprey = 1,
              wpredator = `SI predator mass`,
              wprey = `SI prey mass`,
              l = log(wpredator / wprey)) %>% 
    # ignore prey that are larger than the predator
    filter(l > 0) %>% 
    group_by(Species) %>% 
    mutate(weight_numbers = Nprey / sum(Nprey),
           weight_biomass = Nprey * wprey / sum(Nprey * wprey))
stomach
#> # A tibble: 303 x 7
#> # Groups:   Species [2]
#>    Species             Nprey wpredator wprey     l weight_numbers weight_biomass
#>    <chr>               <dbl>     <dbl> <dbl> <dbl>          <dbl>          <dbl>
#>  1 Merluccius merlucc…     1      49.1  6.6  2.01         0.00358      0.000457 
#>  2 Merluccius merlucc…     1      56.2 23.6  0.870        0.00358      0.00163  
#>  3 Merluccius merlucc…     1      81.6  3.32 3.20         0.00358      0.000230 
#>  4 Merluccius merlucc…     1      91.4  1.20 4.33         0.00358      0.0000831
#>  5 Merluccius merlucc…     1      91.4  7.76 2.47         0.00358      0.000537 
#>  6 Merluccius merlucc…     1     102.   8.07 2.54         0.00358      0.000559 
#>  7 Merluccius merlucc…     1     126.   4.98 3.23         0.00358      0.000345 
#>  8 Merluccius merlucc…     1     139.  22.7  1.81         0.00358      0.00157  
#>  9 Merluccius merlucc…     1     167.  26.6  1.84         0.00358      0.00184  
#> 10 Merluccius merlucc…     1     167.   3.95 3.75         0.00358      0.000273 
#> # … with 293 more rows
…
